<svg width="376" height="280" viewBox="0 0 376 280" fill="none" xmlns="http://www.w3.org/2000/svg">
<path d="M394.977 81.6685C395.057 99.3272 387.56 110.43 374.404 118.129C338.685 139.019 302.985 159.944 267.304 180.903C219.158 209.134 170.9 237.238 122.936 265.688C108.418 274.298 93.0955 280.392 76.3438 279.977C45.6192 279.204 20.8943 266.127 4.25605 239.258C-4.10278 225.754 -11.7924 211.8 -19.4821 197.916C-25.4365 187.217 -20.4121 175.917 -8.87763 173.413C-3.10471 172.155 3.47347 175.41 7.17086 181.746C14.3048 193.98 21.2799 206.318 28.3345 218.598C45.1315 247.856 75.6633 256.57 104.664 239.685C167.83 202.936 230.886 166.003 293.832 128.885C314.95 116.49 336.069 104.098 357.187 91.7097C366.714 86.1351 366.737 80.7336 357.187 75.0667C341.308 65.6603 325.646 66.2489 310.017 75.7246C291.677 86.8507 273.258 97.873 254.885 108.941C245.029 114.885 240.141 114.643 231.067 107.787C205.083 87.8894 179.394 67.5993 152.98 48.3247C144.088 41.8383 133.415 37.8334 123.491 32.882C121.892 32.0856 119.805 32.2472 117.934 32.0626C113.896 31.6817 110.278 32.4896 108.361 36.5753C106.445 40.6611 107.84 43.8581 110.46 47.1244C126.894 67.7262 143.351 88.3396 159.569 109.115C163.081 113.547 165.626 118.689 167.035 124.2C168.444 129.71 168.684 135.463 167.74 141.075C166.796 146.687 164.69 152.031 161.56 156.751C158.43 161.471 154.349 165.459 149.588 168.45C126.576 182.762 103.156 196.554 79.8371 210.438C71.2514 215.551 62.3482 213.232 57.7662 205.187C53.1841 197.143 55.6793 188.406 64.4124 183.085C85.5079 170.262 106.694 157.601 127.835 144.87C129.139 144.086 130.5 143.393 131.748 142.562C138.088 138.28 138.871 133.19 134.016 127.073C117.76 106.56 101.481 86.0736 85.179 65.6141C80.7529 60.1894 77.8179 53.6684 76.6728 46.7145C75.5277 39.7606 76.2133 32.6221 78.6599 26.0254C81.1065 19.4288 85.2267 13.6094 90.6013 9.15961C95.9759 4.70976 102.413 1.78826 109.257 0.692407C123.174 -1.75442 135.729 2.6314 148.057 8.26372C165.682 16.3429 180.086 29.2579 195.398 40.8227C210.142 51.9373 224.795 63.1211 239.256 74.5819C243.191 77.6982 246.061 77.6636 250.269 75.0436C264.911 65.8795 279.814 57.1541 294.626 48.2439C322.788 31.3008 354.091 32.7781 380.233 52.6182C390.248 60.2126 395.374 70.5655 394.977 81.6685Z" fill="#00A992" fill-opacity="0.2"/>
</svg>
