<svg width="20" height="20" viewBox="0 0 20 20" fill="none" xmlns="http://www.w3.org/2000/svg">
<g clip-path="url(#clip0)">
<path d="M1.17723 12.622C0.797283 11.8072 1.16089 10.8393 1.98336 10.4762L6.48534 8.48867L6.64833 2.9591L9.574 1.57487L10.6204 6.66309L15.2541 4.61739L15.6764 2.37762L17.6986 1.43466L17.656 4.93787L16.3576 6.98378L3.33919 13.3839C2.53239 13.7805 1.55718 13.4369 1.17723 12.622Z" fill="white"/>
<path d="M19 17H1V18H19V17Z" fill="white"/>
</g>
<defs>
<clipPath id="clip0">
<rect width="20" height="20" fill="white"/>
</clipPath>
</defs>
</svg>
