<svg width="12" height="12" viewBox="0 0 12 12" fill="none" xmlns="http://www.w3.org/2000/svg">
<path d="M10.4664 0H6.52444L0 6.52444L5.47556 12L12 5.47556V1.53359L10.4664 0ZM2.65482 6.85629L6.10608 3.40503L6.60385 3.90281L3.15259 7.35406L2.65482 6.85629ZM3.65039 7.85184L5.77425 5.72798L6.27202 6.22575L4.14816 8.34961L3.65039 7.85184ZM5.14371 9.34518L4.64594 8.84741L7.4335 6.05985L7.93127 6.55762L5.14371 9.34518ZM10.1381 3.42162C9.92309 3.63661 9.64066 3.74413 9.35823 3.74413C9.07582 3.74413 8.79339 3.63661 8.5784 3.42162C8.3701 3.21334 8.25535 2.93636 8.25535 2.64177C8.25535 2.34718 8.37007 2.07022 8.5784 1.86192C9.00838 1.43194 9.70808 1.43191 10.1381 1.86192C10.3464 2.07022 10.4612 2.34718 10.4612 2.64177C10.4612 2.93636 10.3464 3.21332 10.1381 3.42162Z" fill="#038F00"/>
</svg>
